TP 2 marked abundance
…
Partie 4 : cistudes

On passe  lexercice sur les cistudes.

Les donnes

dat <- read_csv2("dat/BDD-CMR-Cistudes-Vigueirat.csv")
dat <- janitor::clean_names(dat)

Quelles sont les annes avec le plus de marquages et recaptures?

dat %>% 
  count(action, mois, annee, sort = TRUE)

## # A tibble: 168 x 4
##    action     mois annee     n
##    <chr>     <dbl> <dbl> <int>
##  1 Recapture     4  2007   114
##  2 Recapture     6  2007    65
##  3 Marquage      6  1997    50
##  4 Recapture     7  2006    44
##  5 Recapture     5  2007    38
##  6 Recapture     3  2007    37
##  7 Marquage      7  2006    33
##  8 Recapture     8  2006    31
##  9 Marquage      4  2007    27
## 10 Marquage      9  2005    26
## #  with 158 more rows
…
Partie 5 : monarques

On passe  lanalyse des donnes monarques.

Les donnes.

dat <- readxl::read_xlsx("dat/CMR-Monarque-2019.xlsx") %>%
  janitor::clean_names() %>%
  select(session, identifiant) %>%
  filter(identifiant != 0) %>%
  add_column(det = 1) %>%
  arrange(identifiant)
dat

## # A tibble: 327 x 3
##    session   identifiant   det
##    <chr>           <dbl> <dbl>
##  1 Session 1           1     1
##  2 Session 1           2     1
##  3 Session 1           3     1
##  4 Session 2           3     1
##  5 Session 1           4     1
##  6 Session 2           4     1
##  7 Session 1           5     1
##  8 Session 1           6     1
##  9 Session 4           6     1
## 10 Session 1           7     1
## #  with 317 more rows
…
