TP 3 unmarked
…
Partie 3

On lit les donnes.

dat <- readxl::read_xlsx("dat/dynoccupancy.xlsx")
dat

## # A tibble: 250 x 30
##    `Session 1-1` `Session 1-2` `Session 1-3` `Session 2-1` `Session 2-2`
##            <dbl>         <dbl>         <dbl>         <dbl>         <dbl>
##  1             0             0             0             0             1
##  2             0             0             0             0             0
##  3             0             0             0             0             0
##  4             1             0             0             1             0
##  5             0             0             0             0             0
##  6             0             0             0             0             0
##  7             0             0             0             0             0
##  8             0             0             1             0             0
##  9             1             1             0             0             1
## 10             0             0             0             0             0
## #  with 240 more rows, and 25 more variables: `Session 2-3` <dbl>, `Session
## #   3-1` <dbl>, `Session 3-2` <dbl>, `Session 3-3` <dbl>, `Session 4-1` <dbl>,
## #   `Session 4-2` <dbl>, `Session 4-3` <dbl>, `Session 5-1` <dbl>, `Session
## #   5-2` <dbl>, `Session 5-3` <dbl>, `Session 6-1` <dbl>, `Session 6-2` <dbl>,
## #   `Session 6-3` <dbl>, `Session 7-1` <dbl>, `Session 7-2` <dbl>, `Session
## #   7-3` <dbl>, `Session 8-1` <dbl>, `Session 8-2` <dbl>, `Session 8-3` <dbl>,
## #   `Session 9-1` <dbl>, `Session 9-2` <dbl>, `Session 9-3` <dbl>, `Session
## #   10-1` <dbl>, `Session 10-2` <dbl>, `Session 10-3` <dbl>
…
